{
    "comment": "#bot-stuff",
    "filter": [
        "/* Attachments & Embeds */",
        "if (this.message.attachments.size > 0 || this.message.embeds.size > 0) {",
        "    return true;",
        "}",
        "return false;"
    ]
}
