{
    "comment": "#gaming-talk",
    "filter": [
        "/* Attachments & Embeds */",
        "if (this.message.attachments.size > 0 || this.message.embeds.size > 0) {",
        "    return true;",
        "}",
        "/* Links */",
        "expr = \"([a-zA-Z0-9]+://)?([a-zA-Z0-9_]+:[a-zA-Z0-9_]+@)?([a-zA-Z0-9.-]+\\\\.[A-Za-z]{2,4})(:[0-9]+)?(/.*)?\";",
        "if (new RegExp(expr).test(this.message.content)) {",
        "    return true;",
        "}",
        "return false;"
    ]
}
